EESchema Schematic File Version 2
LIBS:power
LIBS:device
LIBS:transistors
LIBS:conn
LIBS:linear
LIBS:regul
LIBS:74xx
LIBS:cmos4000
LIBS:adc-dac
LIBS:memory
LIBS:xilinx
LIBS:microcontrollers
LIBS:dsp
LIBS:microchip
LIBS:analog_switches
LIBS:motorola
LIBS:texas
LIBS:intel
LIBS:audio
LIBS:interface
LIBS:digital-audio
LIBS:philips
LIBS:display
LIBS:cypress
LIBS:siliconi
LIBS:opto
LIBS:atmel
LIBS:contrib
LIBS:valves
LIBS:teensy32
LIBS:mos_technology
LIBS:SIDtest-cache
EELAYER 25 0
EELAYER END
$Descr A4 11693 8268
encoding utf-8
Sheet 1 1
Title ""
Date ""
Rev ""
Comp ""
Comment1 ""
Comment2 ""
Comment3 ""
Comment4 ""
$EndDescr
Entry Bus Bus
	7950 10550 8050 10650
Entry Bus Bus
	7950 10550 8050 10650
Entry Bus Bus
	6850 7100 6950 7200
Entry Bus Bus
	6850 7100 6950 7200
Entry Bus Bus
	6850 7100 6950 7200
$Comp
L teensy32-basic U?
U 1 1 58B1D11A
P 2250 2750
F 0 "U?" H 2300 2700 60  0000 C CNN
F 1 "teensy32-basic" H 2600 4300 60  0000 C CNN
F 2 "" H 2200 3150 60  0001 C CNN
F 3 "" H 2200 3150 60  0001 C CNN
	1    2250 2750
	1    0    0    -1  
$EndComp
$Comp
L 6581_R3 U?
U 1 1 58B1DBAD
P 2550 5450
F 0 "U?" H 2600 5400 60  0000 C CNN
F 1 "6581_R3" H 2750 7000 60  0000 C CNN
F 2 "" H 2550 5450 60  0001 C CNN
F 3 "" H 2550 5450 60  0001 C CNN
	1    2550 5450
	1    0    0    -1  
$EndComp
$Comp
L LM7812 U?
U 1 1 58B1EA8A
P 8150 1100
F 0 "U?" H 8300 904 50  0000 C CNN
F 1 "LM7812" H 8150 1300 50  0000 C CNN
F 2 "" H 8150 1100 50  0000 C CNN
F 3 "" H 8150 1100 50  0000 C CNN
	1    8150 1100
	1    0    0    -1  
$EndComp
$Comp
L 7805 U?
U 1 1 58B1EB2B
P 9150 1100
F 0 "U?" H 9300 904 50  0000 C CNN
F 1 "7805" H 9150 1300 50  0000 C CNN
F 2 "" H 9150 1100 50  0000 C CNN
F 3 "" H 9150 1100 50  0000 C CNN
	1    9150 1100
	1    0    0    -1  
$EndComp
$Comp
L +12V #PWR?
U 1 1 58B1EED3
P 8650 950
F 0 "#PWR?" H 8650 800 50  0001 C CNN
F 1 "+12V" H 8650 1090 50  0000 C CNN
F 2 "" H 8650 950 50  0000 C CNN
F 3 "" H 8650 950 50  0000 C CNN
	1    8650 950 
	1    0    0    -1  
$EndComp
$Comp
L +5V #PWR?
U 1 1 58B1EEEF
P 9600 950
F 0 "#PWR?" H 9600 800 50  0001 C CNN
F 1 "+5V" H 9600 1090 50  0000 C CNN
F 2 "" H 9600 950 50  0000 C CNN
F 3 "" H 9600 950 50  0000 C CNN
	1    9600 950 
	1    0    0    -1  
$EndComp
$Comp
L GND #PWR?
U 1 1 58B1EF0B
P 8650 1600
F 0 "#PWR?" H 8650 1350 50  0001 C CNN
F 1 "GND" H 8650 1450 50  0000 C CNN
F 2 "" H 8650 1600 50  0000 C CNN
F 3 "" H 8650 1600 50  0000 C CNN
	1    8650 1600
	1    0    0    -1  
$EndComp
$Comp
L +15V #PWR?
U 1 1 58B1EF3F
P 7650 950
F 0 "#PWR?" H 7650 800 50  0001 C CNN
F 1 "+15V" H 7650 1090 50  0000 C CNN
F 2 "" H 7650 950 50  0000 C CNN
F 3 "" H 7650 950 50  0000 C CNN
	1    7650 950 
	1    0    0    -1  
$EndComp
$Comp
L C C?
U 1 1 58B1F5AD
P 7000 1200
F 0 "C?" H 7025 1300 50  0000 L CNN
F 1 "2200pF" H 7025 1100 50  0000 L CNN
F 2 "" H 7038 1050 50  0000 C CNN
F 3 "" H 7000 1200 50  0000 C CNN
	1    7000 1200
	-1   0    0    1   
$EndComp
$Comp
L C C?
U 1 1 58B1FA33
P 6500 1200
F 0 "C?" H 6525 1300 50  0000 L CNN
F 1 "220pF" H 6525 1100 50  0000 L CNN
F 2 "" H 6538 1050 50  0000 C CNN
F 3 "" H 6500 1200 50  0000 C CNN
	1    6500 1200
	-1   0    0    1   
$EndComp
$Comp
L CP C?
U 1 1 58B21E28
P 7650 1250
F 0 "C?" H 7675 1350 50  0000 L CNN
F 1 "10uF" H 7675 1150 50  0000 L CNN
F 2 "" H 7688 1100 50  0000 C CNN
F 3 "" H 7650 1250 50  0000 C CNN
	1    7650 1250
	1    0    0    -1  
$EndComp
$Comp
L CP C?
U 1 1 58B21ED4
P 8650 1250
F 0 "C?" H 8675 1350 50  0000 L CNN
F 1 "10uF" H 8675 1150 50  0000 L CNN
F 2 "" H 8688 1100 50  0000 C CNN
F 3 "" H 8650 1250 50  0000 C CNN
	1    8650 1250
	1    0    0    -1  
$EndComp
$Comp
L CP C?
U 1 1 58B21F2A
P 9600 1250
F 0 "C?" H 9625 1350 50  0000 L CNN
F 1 "10uF" H 9625 1150 50  0000 L CNN
F 2 "" H 9638 1100 50  0000 C CNN
F 3 "" H 9600 1250 50  0000 C CNN
	1    9600 1250
	1    0    0    -1  
$EndComp
Wire Wire Line
	8150 1350 8150 1500
Wire Wire Line
	7650 1500 9600 1500
Wire Wire Line
	8550 1050 8750 1050
Wire Wire Line
	7750 1050 7650 1050
Wire Wire Line
	7650 950  7650 1100
Wire Wire Line
	9550 1050 9600 1050
Wire Wire Line
	9600 950  9600 1100
Wire Wire Line
	8650 950  8650 1100
Connection ~ 8650 1050
Wire Wire Line
	8650 1400 8650 1600
Connection ~ 8650 1500
Wire Wire Line
	9150 1500 9150 1350
Wire Wire Line
	9600 1500 9600 1400
Connection ~ 9150 1500
Wire Wire Line
	7650 1400 7650 1500
Connection ~ 8150 1500
Connection ~ 7650 1050
Connection ~ 9600 1050
$Comp
L LED D?
U 1 1 58B2255A
P 10200 1250
F 0 "D?" H 10200 1350 50  0000 C CNN
F 1 "LED" H 10200 1150 50  0000 C CNN
F 2 "" H 10200 1250 50  0000 C CNN
F 3 "" H 10200 1250 50  0000 C CNN
	1    10200 1250
	0    1    1    0   
$EndComp
$Comp
L LED D?
U 1 1 58B225B1
P 10550 1250
F 0 "D?" H 10550 1350 50  0000 C CNN
F 1 "LED" H 10550 1150 50  0000 C CNN
F 2 "" H 10550 1250 50  0000 C CNN
F 3 "" H 10550 1250 50  0000 C CNN
	1    10550 1250
	0    1    1    0   
$EndComp
$Comp
L +12V #PWR?
U 1 1 58B2269D
P 10200 950
F 0 "#PWR?" H 10200 800 50  0001 C CNN
F 1 "+12V" H 10200 1090 50  0000 C CNN
F 2 "" H 10200 950 50  0000 C CNN
F 3 "" H 10200 950 50  0000 C CNN
	1    10200 950 
	1    0    0    -1  
$EndComp
$Comp
L +5V #PWR?
U 1 1 58B226C7
P 10550 950
F 0 "#PWR?" H 10550 800 50  0001 C CNN
F 1 "+5V" H 10550 1090 50  0000 C CNN
F 2 "" H 10550 950 50  0000 C CNN
F 3 "" H 10550 950 50  0000 C CNN
	1    10550 950 
	1    0    0    -1  
$EndComp
$Comp
L GND #PWR?
U 1 1 58B22712
P 10200 1950
F 0 "#PWR?" H 10200 1700 50  0001 C CNN
F 1 "GND" H 10200 1800 50  0000 C CNN
F 2 "" H 10200 1950 50  0000 C CNN
F 3 "" H 10200 1950 50  0000 C CNN
	1    10200 1950
	1    0    0    -1  
$EndComp
$Comp
L GND #PWR?
U 1 1 58B2273C
P 10550 1950
F 0 "#PWR?" H 10550 1700 50  0001 C CNN
F 1 "GND" H 10550 1800 50  0000 C CNN
F 2 "" H 10550 1950 50  0000 C CNN
F 3 "" H 10550 1950 50  0000 C CNN
	1    10550 1950
	1    0    0    -1  
$EndComp
$Comp
L R R?
U 1 1 58B22921
P 10200 1650
F 0 "R?" V 10280 1650 50  0000 C CNN
F 1 "R" V 10200 1650 50  0000 C CNN
F 2 "" V 10130 1650 50  0000 C CNN
F 3 "" H 10200 1650 50  0000 C CNN
	1    10200 1650
	1    0    0    -1  
$EndComp
$Comp
L R R?
U 1 1 58B22978
P 10550 1650
F 0 "R?" V 10630 1650 50  0000 C CNN
F 1 "R" V 10550 1650 50  0000 C CNN
F 2 "" V 10480 1650 50  0000 C CNN
F 3 "" H 10550 1650 50  0000 C CNN
	1    10550 1650
	1    0    0    -1  
$EndComp
Wire Wire Line
	10200 1500 10200 1400
Wire Wire Line
	10550 1500 10550 1400
Wire Wire Line
	10200 1100 10200 950 
Wire Wire Line
	10550 1100 10550 950 
Wire Wire Line
	10550 1950 10550 1800
Wire Wire Line
	10200 1950 10200 1800
Text GLabel 6500 900  1    39   UnSpc ~ 0
1A
Text GLabel 7000 900  1    39   UnSpc ~ 0
2A
Text GLabel 6500 1500 3    39   UnSpc ~ 0
1B
Text GLabel 7000 1500 3    39   UnSpc ~ 0
2B
Wire Wire Line
	6500 1500 6500 1350
Wire Wire Line
	6500 1050 6500 900 
Wire Wire Line
	7000 900  7000 1050
Wire Wire Line
	7000 1350 7000 1500
$Comp
L CONN_01X02 P?
U 1 1 58B29418
P 7950 2150
F 0 "P?" H 7950 2300 50  0000 C CNN
F 1 "CONN_01X02" V 8050 2150 50  0000 C CNN
F 2 "" H 7950 2150 50  0000 C CNN
F 3 "" H 7950 2150 50  0000 C CNN
	1    7950 2150
	1    0    0    -1  
$EndComp
$Comp
L +15V #PWR?
U 1 1 58B295B9
P 7650 2000
F 0 "#PWR?" H 7650 1850 50  0001 C CNN
F 1 "+15V" H 7650 2140 50  0000 C CNN
F 2 "" H 7650 2000 50  0000 C CNN
F 3 "" H 7650 2000 50  0000 C CNN
	1    7650 2000
	1    0    0    -1  
$EndComp
$Comp
L GND #PWR?
U 1 1 58B295E9
P 7650 2300
F 0 "#PWR?" H 7650 2050 50  0001 C CNN
F 1 "GND" H 7650 2150 50  0000 C CNN
F 2 "" H 7650 2300 50  0000 C CNN
F 3 "" H 7650 2300 50  0000 C CNN
	1    7650 2300
	1    0    0    -1  
$EndComp
Wire Wire Line
	7650 2200 7650 2300
Wire Wire Line
	7750 2200 7650 2200
Wire Wire Line
	7750 2100 7650 2100
Wire Wire Line
	7650 2100 7650 2000
Text GLabel 4550 1750 2    39   Output ~ 0
A1
Text GLabel 4550 1850 2    39   BiDi ~ 0
D6
Text GLabel 4550 2550 2    39   BiDi ~ 0
D1
Text GLabel 4550 2450 2    39   Output ~ 0
A0
Text GLabel 4550 2350 2    39   Output ~ 0
CS0
Text GLabel 4550 2250 2    39   Output ~ 0
CS1
Text GLabel 4550 2150 2    39   Output ~ 0
R/W
Text GLabel 4550 2050 2    39   Output ~ 0
~Reset
Text GLabel 4550 1950 2    39   BiDi ~ 0
D5
Text GLabel 4550 1650 2    39   Output ~ 0
A2
Text GLabel 1900 2450 0    39   Output ~ 0
A4
Text GLabel 1900 2350 0    39   Output ~ 0
A3
Text GLabel 1900 2250 0    39   BiDi ~ 0
D3
Text GLabel 1900 2150 0    39   BiDi ~ 0
D2
Text GLabel 1900 2050 0    39   BiDi ~ 0
D4
Text GLabel 1900 1950 0    39   BiDi ~ 0
D7
Text GLabel 1900 1750 0    39   Output ~ 0
TCLK
Text GLabel 1900 1650 0    39   BiDi ~ 0
D0
Wire Wire Line
	1900 1650 2050 1650
Wire Wire Line
	1900 1750 2050 1750
Wire Wire Line
	1900 1950 2050 1950
Wire Wire Line
	1900 2050 2050 2050
Wire Wire Line
	1900 2150 2050 2150
Wire Wire Line
	1900 2250 2050 2250
Wire Wire Line
	1900 2350 2050 2350
Wire Wire Line
	1900 2450 2050 2450
Text GLabel 2200 5050 0    39   Input ~ 0
A2
Text GLabel 2200 4950 0    39   Input ~ 0
A1
Text GLabel 2200 4850 0    39   Input ~ 0
A0
Text GLabel 2200 5150 0    39   Input ~ 0
A3
Text GLabel 2200 5250 0    39   Input ~ 0
A4
Text GLabel 2200 4750 0    39   Input ~ 0
CS0
Text GLabel 2200 4650 0    39   Input ~ 0
R/W
Text GLabel 2200 4450 0    39   Input ~ 0
~Reset
Text GLabel 3750 5250 2    39   BiDi ~ 0
D1
Text GLabel 3750 4850 2    39   BiDi ~ 0
D5
Text GLabel 3750 4750 2    39   BiDi ~ 0
D6
Text GLabel 3750 4650 2    39   BiDi ~ 0
D7
Text GLabel 3750 4950 2    39   BiDi ~ 0
D4
Text GLabel 3750 5050 2    39   BiDi ~ 0
D3
Text GLabel 3750 5150 2    39   BiDi ~ 0
D2
Text GLabel 3750 5350 2    39   BiDi ~ 0
D0
Wire Wire Line
	4400 1650 4550 1650
Wire Wire Line
	4400 1750 4550 1750
Wire Wire Line
	4400 1850 4550 1850
Wire Wire Line
	4400 1950 4550 1950
Wire Wire Line
	4400 2050 4550 2050
Wire Wire Line
	4400 2150 4550 2150
Wire Wire Line
	4400 2250 4550 2250
Wire Wire Line
	4400 2350 4550 2350
Wire Wire Line
	4400 2450 4550 2450
Wire Wire Line
	4400 2550 4550 2550
Wire Wire Line
	3600 5350 3750 5350
Wire Wire Line
	3600 5250 3750 5250
Wire Wire Line
	3600 5150 3750 5150
Wire Wire Line
	3600 5050 3750 5050
Wire Wire Line
	3600 4950 3750 4950
Wire Wire Line
	3600 4850 3750 4850
Wire Wire Line
	3600 4750 3750 4750
Wire Wire Line
	3600 4650 3750 4650
Wire Wire Line
	2200 5250 2350 5250
Wire Wire Line
	2200 5150 2350 5150
Wire Wire Line
	2200 5050 2350 5050
Wire Wire Line
	2200 4950 2350 4950
Wire Wire Line
	2200 4850 2350 4850
Wire Wire Line
	2200 4750 2350 4750
Wire Wire Line
	2200 4650 2350 4650
Wire Wire Line
	2200 4450 2350 4450
Text GLabel 2200 4550 0    39   Input ~ 0
Clock
Wire Wire Line
	2350 4550 2200 4550
$Comp
L CONN_01X03 P?
U 1 1 58B5CD11
P 7000 2100
F 0 "P?" H 7000 2300 50  0000 C CNN
F 1 "CONN_01X03" V 7100 2100 50  0000 C CNN
F 2 "" H 7000 2100 50  0000 C CNN
F 3 "" H 7000 2100 50  0000 C CNN
	1    7000 2100
	1    0    0    -1  
$EndComp
Text GLabel 6650 2200 0    39   Input ~ 0
TCLK
Text GLabel 6650 2100 0    39   Output ~ 0
Clock
Text GLabel 6650 2000 0    39   Input ~ 0
OCLK
Wire Wire Line
	6800 2200 6650 2200
Wire Wire Line
	6800 2100 6650 2100
Wire Wire Line
	6800 2000 6650 2000
$Comp
L +12V #PWR?
U 1 1 58B5EDED
P 3800 3950
F 0 "#PWR?" H 3800 3800 50  0001 C CNN
F 1 "+12V" H 3800 4090 50  0000 C CNN
F 2 "" H 3800 3950 50  0000 C CNN
F 3 "" H 3800 3950 50  0000 C CNN
	1    3800 3950
	1    0    0    -1  
$EndComp
$Comp
L +5V #PWR?
U 1 1 58B5EE21
P 4250 3950
F 0 "#PWR?" H 4250 3800 50  0001 C CNN
F 1 "+5V" H 4250 4090 50  0000 C CNN
F 2 "" H 4250 3950 50  0000 C CNN
F 3 "" H 4250 3950 50  0000 C CNN
	1    4250 3950
	1    0    0    -1  
$EndComp
Text GLabel 2200 4150 0    39   UnSpc ~ 0
1B
Text GLabel 2200 4350 0    39   UnSpc ~ 0
2B
Text GLabel 2200 4050 0    39   UnSpc ~ 0
1A
Text GLabel 2200 4250 0    39   UnSpc ~ 0
2A
Wire Wire Line
	2200 4050 2350 4050
Wire Wire Line
	2200 4150 2350 4150
Wire Wire Line
	2200 4250 2350 4250
Wire Wire Line
	2200 4350 2350 4350
Wire Wire Line
	3600 4050 3800 4050
Wire Wire Line
	3800 4050 3800 3950
$Comp
L GND #PWR?
U 1 1 58B61E65
P 2200 5500
F 0 "#PWR?" H 2200 5250 50  0001 C CNN
F 1 "GND" H 2200 5350 50  0000 C CNN
F 2 "" H 2200 5500 50  0000 C CNN
F 3 "" H 2200 5500 50  0000 C CNN
	1    2200 5500
	1    0    0    -1  
$EndComp
Wire Wire Line
	2200 5500 2200 5350
Wire Wire Line
	2200 5350 2350 5350
$Comp
L GND #PWR?
U 1 1 58B6287F
P 1400 1500
F 0 "#PWR?" H 1400 1250 50  0001 C CNN
F 1 "GND" H 1400 1350 50  0000 C CNN
F 2 "" H 1400 1500 50  0000 C CNN
F 3 "" H 1400 1500 50  0000 C CNN
	1    1400 1500
	1    0    0    -1  
$EndComp
Wire Wire Line
	1400 1500 1400 1350
Wire Wire Line
	1400 1350 2050 1350
$Comp
L +3V3 #PWR?
U 1 1 58B6459D
P 4800 1250
F 0 "#PWR?" H 4800 1100 50  0001 C CNN
F 1 "+3V3" H 4800 1390 50  0000 C CNN
F 2 "" H 4800 1250 50  0000 C CNN
F 3 "" H 4800 1250 50  0000 C CNN
	1    4800 1250
	1    0    0    -1  
$EndComp
Wire Wire Line
	4400 1550 4800 1550
Wire Wire Line
	4800 1550 4800 1250
$Comp
L +3V3 #PWR?
U 1 1 58B64BD7
P 10900 950
F 0 "#PWR?" H 10900 800 50  0001 C CNN
F 1 "+3V3" H 10900 1090 50  0000 C CNN
F 2 "" H 10900 950 50  0000 C CNN
F 3 "" H 10900 950 50  0000 C CNN
	1    10900 950 
	1    0    0    -1  
$EndComp
$Comp
L LED D?
U 1 1 58B64C19
P 10900 1250
F 0 "D?" H 10900 1350 50  0000 C CNN
F 1 "LED" H 10900 1150 50  0000 C CNN
F 2 "" H 10900 1250 50  0000 C CNN
F 3 "" H 10900 1250 50  0000 C CNN
	1    10900 1250
	0    1    1    0   
$EndComp
$Comp
L R R?
U 1 1 58B64C73
P 10900 1650
F 0 "R?" V 10980 1650 50  0000 C CNN
F 1 "R" V 10900 1650 50  0000 C CNN
F 2 "" V 10830 1650 50  0000 C CNN
F 3 "" H 10900 1650 50  0000 C CNN
	1    10900 1650
	1    0    0    -1  
$EndComp
$Comp
L GND #PWR?
U 1 1 58B64CC3
P 10900 1950
F 0 "#PWR?" H 10900 1700 50  0001 C CNN
F 1 "GND" H 10900 1800 50  0000 C CNN
F 2 "" H 10900 1950 50  0000 C CNN
F 3 "" H 10900 1950 50  0000 C CNN
	1    10900 1950
	1    0    0    -1  
$EndComp
Wire Wire Line
	10900 1950 10900 1800
Wire Wire Line
	10900 1500 10900 1400
Wire Wire Line
	10900 1100 10900 950 
$Comp
L R R?
U 1 1 58B656AD
P 8750 2400
F 0 "R?" V 8830 2400 50  0000 C CNN
F 1 "330k" V 8750 2400 50  0000 C CNN
F 2 "" V 8680 2400 50  0000 C CNN
F 3 "" H 8750 2400 50  0000 C CNN
	1    8750 2400
	1    0    0    -1  
$EndComp
Text GLabel 3750 4150 2    39   Output ~ 0
Audio_Out
Text GLabel 3750 4250 2    39   Input ~ 0
External_In
Wire Wire Line
	3750 4150 3600 4150
Wire Wire Line
	3750 4250 3600 4250
Wire Wire Line
	4250 3950 4250 4350
Wire Wire Line
	4250 4350 3600 4350
$Comp
L CONN_01X02 P?
U 1 1 58B67465
P 8650 1950
F 0 "P?" H 8650 2100 50  0000 C CNN
F 1 "CONN_01X02" V 8750 1950 50  0000 C CNN
F 2 "" H 8650 1950 50  0000 C CNN
F 3 "" H 8650 1950 50  0000 C CNN
	1    8650 1950
	0    -1   -1   0   
$EndComp
Text GLabel 8550 2300 3    39   Input ~ 0
External_In
$Comp
L GND #PWR?
U 1 1 58B682BE
P 8750 2650
F 0 "#PWR?" H 8750 2400 50  0001 C CNN
F 1 "GND" H 8750 2500 50  0000 C CNN
F 2 "" H 8750 2650 50  0000 C CNN
F 3 "" H 8750 2650 50  0000 C CNN
	1    8750 2650
	1    0    0    -1  
$EndComp
Wire Wire Line
	8750 2650 8750 2550
Wire Wire Line
	8750 2250 8750 2200
Wire Wire Line
	8750 2200 8700 2200
Wire Wire Line
	8700 2200 8700 2150
Wire Wire Line
	8550 2300 8550 2200
Wire Wire Line
	8550 2200 8600 2200
Wire Wire Line
	8600 2200 8600 2150
Text GLabel 6800 2900 0    39   Input ~ 0
Audio_Out
$Comp
L R R?
U 1 1 58B6A416
P 6950 3150
F 0 "R?" V 7030 3150 50  0000 C CNN
F 1 "R" V 6950 3150 50  0000 C CNN
F 2 "" V 6880 3150 50  0000 C CNN
F 3 "" H 6950 3150 50  0000 C CNN
	1    6950 3150
	1    0    0    -1  
$EndComp
$Comp
L CP C?
U 1 1 58B6A47F
P 7200 2900
F 0 "C?" H 7225 3000 50  0000 L CNN
F 1 "10uF" H 7225 2800 50  0000 L CNN
F 2 "" H 7238 2750 50  0000 C CNN
F 3 "" H 7200 2900 50  0000 C CNN
	1    7200 2900
	0    -1   -1   0   
$EndComp
Wire Wire Line
	6800 2900 7050 2900
Wire Wire Line
	6950 3000 6950 2900
Connection ~ 6950 2900
$Comp
L GND #PWR?
U 1 1 58B6A707
P 6950 3400
F 0 "#PWR?" H 6950 3150 50  0001 C CNN
F 1 "GND" H 6950 3250 50  0000 C CNN
F 2 "" H 6950 3400 50  0000 C CNN
F 3 "" H 6950 3400 50  0000 C CNN
	1    6950 3400
	1    0    0    -1  
$EndComp
Wire Wire Line
	6950 3400 6950 3300
$Comp
L CONN_01X02 P?
U 1 1 58B6BDD3
P 7700 2950
F 0 "P?" H 7700 3100 50  0000 C CNN
F 1 "CONN_01X02" V 7800 2950 50  0000 C CNN
F 2 "" H 7700 2950 50  0000 C CNN
F 3 "" H 7700 2950 50  0000 C CNN
	1    7700 2950
	1    0    0    -1  
$EndComp
Wire Wire Line
	7350 2900 7500 2900
Wire Wire Line
	7500 3000 7400 3000
Wire Wire Line
	7400 3000 7400 3350
Wire Wire Line
	7400 3350 6950 3350
Connection ~ 6950 3350
$EndSCHEMATC
